…
``` r
plot(results3)
```

<img src="man/figures/README-unnamed-chunk-11-1.png" width="50%" />

Calculate intraclass correlation coefficient for dimensional data

``` r
# Load dataset with 4 raters rating 15 objects in 1 trial
data(lungfun2)
print(lungfun2)
#> # A tibble: 60 x 4
#>    Trial Object Rater Score
#>    <dbl>  <int> <chr> <dbl>
#>  1     1      1 R1      190
#>  2     1      1 R2      220
#>  3     1      1 R3      200
#>  4     1      1 R4      200
#>  5     1      2 R1      220
#>  6     1      2 R2      200
#>  7     1      2 R3      240
#>  8     1      2 R4      230
#>  9     1      3 R1      260
#> 10     1      3 R2      260
#> # … with 50 more rows
```
…
